…
To select one specific table, use the Name of the specific table *(note the backticks required for table names including special characters)*:
```
> df <- query(conn, dataset="bryon/odin-2015-2016", query="SELECT * FROM `ODIN-2015-2016-standardized`")
> df
# A tibble: 7,155 × 19
    Year         Region `Region code`    Country `Country Code`
   <int>          <chr>         <chr>      <chr>          <chr>
1   2015 Eastern Africa           AFE    Burundi            BDI
2   2015 Eastern Africa           AFE    Burundi            BDI
3   2015 Eastern Africa           AFE    Burundi            BDI
4   2015 Eastern Africa           AFE Madagascar            MDG
5   2015 Western Africa           AFW Mauritania            MRT
6   2015 Western Africa           AFW Mauritania            MRT
7   2015 Western Africa           AFW Mauritania            MRT
8   2015 Western Africa           AFW Mauritania            MRT
9   2015 Western Africa           AFW Mauritania            MRT
10  2015 Western Africa           AFW Mauritania            MRT
# ... with 7,145 more rows, and 14 more variables: Elements <chr>, `Indicator Coverage and
#   Disaggregation` <int>, `Data Available Last 5 Years` <int>, `Data Available Last 10 Years` <int>,
#   `First Administrative Level` <int>, `Second Administrative Level` <int>, `Coverage
#   subscore` <int>, `Machine Readable` <int>, `Non-proprietary` <int>, `Download Options` <int>,
#   `Metadata Available` <int>, `Free/ unrestricted use and reuse` <int>, `Openness subscore` <int>,
#   `Overall subscore` <int>
```
…
